﻿<?xml version="1.0" encoding="UTF-8"?>
<TestRun id="311c1007-d1e1-44e6-a678-909bf1be8530" name="student@LAB-43-13 2012-11-18 10:15:22" runUser="LAB-43-13\student" xmlns="http://microsoft.com/schemas/VisualStudio/TeamTest/2010">
  <TestSettings name="Local" id="0acfa3e3-c8f6-4d67-8f08-49aa14b85a3f">
    <Description>These are default test settings for a local test run.</Description>
    <Deployment enabled="false" runDeploymentRoot="student_LAB-43-13 2012-11-18 10_15_22">
      <DeploymentItem filename="C:\Users\student.LAB-43-13\Desktop\BankProject\Bank\bin\Debug\Bank.dll" />
    </Deployment>
    <Execution>
      <TestTypeSpecific />
      <AgentRule name="Execution Agents">
      </AgentRule>
    </Execution>
  </TestSettings>
  <Times creation="2012-11-18T10:15:22.0446989+01:00" queuing="2012-11-18T10:15:22.8870989+01:00" start="2012-11-18T10:15:22.9494989+01:00" finish="2012-11-18T10:15:23.2926989+01:00" />
  <ResultSummary outcome="Completed">
    <Counters total="1" executed="1" passed="1" error="0" failed="0" timeout="0" aborted="0" inconclusive="0" passedButRunAborted="0" notRunnable="0" notExecuted="0" disconnected="0" warning="0" completed="0" inProgress="0" pending="0" />
  </ResultSummary>
  <TestDefinitions>
    <UnitTest name="CreateAcccount" storage="c:\users\student.lab-43-13\desktop\bankproject\bankunittest\bin\debug\bankunittest.dll" id="bf717e1e-dedc-8860-bc79-2a7a90b33e19">
      <Execution id="d9eeba75-5544-4499-891e-e1e4caa3eb2f" />
      <TestMethod codeBase="C:/Users/student.LAB-43-13/Desktop/BankProject/BankUnitTest/bin/Debug/BankUnitTest.DLL" adapterTypeName="Microsoft.VisualStudio.TestTools.TestTypes.Unit.UnitTestAdapter, Microsoft.VisualStudio.QualityTools.Tips.UnitTest.Adapter, Version=10.0.0.0, Culture=neutral, PublicKeyToken=b03f5f7f11d50a3a" className="BankUnitTest.TestClient, BankUnitTest, Version=1.0.0.0, Culture=neutral, PublicKeyToken=null" name="CreateAcccount" />
    </UnitTest>
  </TestDefinitions>
  <TestLists>
    <TestList name="Results Not in a List" id="8c84fa94-04c1-424b-9868-57a2d4851a1d" />
    <TestList name="All Loaded Results" id="19431567-8539-422a-85d7-44ee4e166bda" />
  </TestLists>
  <TestEntries>
    <TestEntry testId="bf717e1e-dedc-8860-bc79-2a7a90b33e19" executionId="d9eeba75-5544-4499-891e-e1e4caa3eb2f" testListId="8c84fa94-04c1-424b-9868-57a2d4851a1d" />
  </TestEntries>
  <Results>
    <UnitTestResult executionId="d9eeba75-5544-4499-891e-e1e4caa3eb2f" testId="bf717e1e-dedc-8860-bc79-2a7a90b33e19" testName="CreateAcccount" computerName="LAB-43-13" duration="00:00:00.0109609" startTime="2012-11-18T10:15:22.9806989+01:00" endTime="2012-11-18T10:15:23.2770989+01:00" testType="13cdc9d9-ddb5-4fa4-a97d-d965ccfc6d4b" outcome="Passed" testListId="8c84fa94-04c1-424b-9868-57a2d4851a1d" relativeResultsDirectory="d9eeba75-5544-4499-891e-e1e4caa3eb2f">
    </UnitTestResult>
  </Results>
</TestRun>